417217
417525
417225
417217
417225
627158
417516
417225
417483
459058
400149
210114
417125
312631
385144
417191
417484
418175
417216
621875
417225
417217
417217
417217
385151
417225
385458
417217
417225
417191
471025
519267
417217
357643
357643
385135
385086
417008
417225
417225
417208
417216
417225
417225
417225
425783
417208
161566
200292
417492
417217
447516
417183
417208
417492
630575
385086
424079
385144
385479
385465
385107
385128
385456
417217
385500
417209
417000
416992
417516
417208
417208
417208
417500
417217
417266
681637
417208
417208
417217
417209
417217
417209
483117
417209
385186
416916
417000
455959
385137
385137
385137
385107
385463
417208
816859
417217
506591
417217
417492
