346658
346472
346679
346686
346679
403799
347058
375550
451150
375342
346672
269295
227612
227723
227643
375559
375550
375608
608275
375542
375559
375550
375541
501492
461717
437524
375550
390791
375550
373503
346679
466184
375542
375550
375542
346679
346670
375550
375834
455750
375841
376175
375533
375550
375542
381833
375834
375550
375492
375467
375558
375859
375550
375550
464117
375542
375550
449435
375550
150312
375516
375542
375558
375550
375550
375550
527817
375558
375491
375550
375558
375833
375825
375550
375542
375558
375817
375550
375550
404850
375559
375550
375825
386656
346986
347621
375341
375516
375559
711350
375517
375550
375550
375550
413883
375558
375542
375550
145466
375550
