385269
292042
269584
269593
292042
292516
140244
292050
292041
292008
292050
120946
200358
207815
403450
292042
292042
292033
292042
269600
292042
292300
292050
292300
335475
269544
292050
125241
291942
292400
292033
292050
292050
292042
293642
333799
292042
292033
292050
292050
292050
316150
292009
292033
292184
292041
292050
292233
292000
292050
292041
292050
292050
295633
291984
291942
291942
292050
292042
292342
292041
292042
292042
292034
269586
121631
140136
291950
292042
292050
292066
293042
292075
292042
292025
291975
292041
315625
292042
292008
292050
292041
292041
387925
250343
269786
269565
269593
269586
273072
292042
292025
312817
292058
437479
299275
292033
269558
269570
292050
